<svg width="233" height="183" xmlns="http://www.w3.org/2000/svg" xmlns:xlink="http://www.w3.org/1999/xlink">
  <defs>
    <path d="M39.095.887L1.076 25.029c-1.303.83-1.069 2.182.512 2.99l60.754 31.268a5.89 5.89 0 0 0 5.248 0l38.02-24.157c1.303-.829 1.068-2.181-.513-2.989L44.343.872a5.89 5.89 0 0 0-5.248.015z" id="a"/>
    <path d="M24.137.481L.864 15.306c-.799.507-.653 1.331.312 1.837l37.18 19.193a3.593 3.593 0 0 0 3.216 0l23.273-14.825c.8-.506.654-1.33-.312-1.837L27.354.481a3.593 3.593 0 0 0-3.217 0z" id="c"/>
    <path d="M58.937 1.031L1.373 37.83c-1.969 1.264-1.62 3.312.778 4.554L94.106 90.07c2.398 1.243 5.98 1.228 7.95 0l57.57-36.797c1.97-1.264 1.621-3.313-.777-4.555L66.887.995c-2.398-1.242-5.973-1.227-7.95.036z" id="e"/>
  </defs>
  <g transform="matrix(-1 0 0 1 233 0)" fill="none" fill-rule="evenodd">
    <path d="M217.749 151.446l-19.296-9.959c1.459-1.263 1.029-3.092-1.196-4.24L104.973 89.63c-2.406-1.242-6.002-1.227-7.978 0L39.19 126.432c-1.976 1.263-1.626 3.31.78 4.551l2.618 1.343-24.932 15.861c-1.298.828-1.065 2.178.51 2.984l60.526 31.213a5.858 5.858 0 0 0 5.23 0l24.932-15.868 23.452 12.1c2.406 1.242 6.001 1.228 7.977 0l31.94-20.324 19.26 9.937a3.61 3.61 0 0 0 3.23 0l23.372-14.88c.78-.574.642-1.424-.335-1.903z" fill="#94B3ED" fill-rule="nonzero" opacity=".228"/>
    <path d="M55.483 93.326l-37.83 24.261c-1.296.833-1.063 2.192.51 3.004l60.452 31.422a5.81 5.81 0 0 0 5.222 0l37.829-24.276c1.296-.833 1.063-2.192-.51-3.003L60.705 93.311a5.81 5.81 0 0 0-5.222.015z" fill="#959BBF" fill-rule="nonzero"/>
    <path d="M18.791 72.93L5.89 81.014c-.44.276-.361.708.173.999L26.665 92.49a2.021 2.021 0 0 0 1.784 0l12.902-8.09c.44-.277.36-.71-.174-1L20.568 72.923a2.021 2.021 0 0 0-1.777.007z" fill="#FF4D6F" fill-rule="nonzero"/>
    <path d="M15.833 68.98L.345 79.019c-.532.343-.439.904.21 1.24l24.712 12.977c.679.35 1.48.35 2.16 0L42.891 83.21c.532-.343.439-.904-.21-1.24L17.949 68.973a2.355 2.355 0 0 0-2.115.008z" fill="#FF4D6F" fill-rule="nonzero"/>
    <ellipse fill="#A3A3B2" fill-rule="nonzero" cx="62.053" cy="21.177" rx="2.002" ry="1.998"/>
    <ellipse fill="#A3A3B2" fill-rule="nonzero" cx="6.005" cy="103.487" rx="2.002" ry="1.998"/>
    <ellipse fill="#A3A3B2" fill-rule="nonzero" cx="206.177" cy="43.552" rx="2.002" ry="1.998"/>
    <ellipse fill="#A3A3B2" fill-rule="nonzero" cx="208.579" cy="100.29" rx="2.002" ry="1.998"/>
    <path fill="#A3A3B2" fill-rule="nonzero" d="M228.195 79.913h-1.6V68.725h1.6z"/>
    <path fill="#A3A3B2" fill-rule="nonzero" d="M232.989 73.519v1.6h-11.188v-1.6zm-91.267 78.315h-1.601v-11.188h1.6z"/>
    <path fill="#A3A3B2" fill-rule="nonzero" d="M146.515 145.44v1.6h-11.188v-1.6zM139.32 11.188h-1.601V0h1.6z"/>
    <path fill="#A3A3B2" fill-rule="nonzero" d="M144.113 4.793v1.601h-11.188V4.793z"/>
    <g transform="translate(16.814 92.699)">
      <mask id="b" fill="#fff">
        <use xlink:href="#a"/>
      </mask>
      <use fill="#959BBF" fill-rule="nonzero" xlink:href="#a"/>
      <path d="M82.515-38.287L24.521-1.44c-1.984 1.265-1.632 3.316.783 4.56l92.631 47.703c2.416 1.243 6.024 1.229 8.008 0l57.994-36.84c1.984-1.265 1.632-3.315-.783-4.559l-92.631-47.74c-2.416-1.243-6.024-1.229-8.008.03z" fill="#5F6A99" fill-rule="nonzero" mask="url(#b)"/>
    </g>
    <g transform="translate(152.931 109.48)">
      <mask id="d" fill="#fff">
        <use xlink:href="#c"/>
      </mask>
      <use fill="#6CCBC5" fill-rule="nonzero" xlink:href="#c"/>
      <path d="M-53.745-55.882L-111.28-19.24c-1.967 1.258-1.619 3.297.777 4.534l91.895 47.44c2.396 1.237 5.976 1.222 7.944 0L46.87-3.901c1.968-1.258 1.62-3.298-.777-4.534L-45.8-55.911c-2.397-1.237-5.977-1.223-7.944.029z" fill="#4F9F9A" fill-rule="nonzero" mask="url(#d)"/>
    </g>
    <path d="M98.415 21.737l-57.898 36.87c-1.98 1.266-1.63 3.319.782 4.563l92.49 47.78c2.411 1.244 6.014 1.23 7.995 0l57.905-36.87c1.98-1.266 1.63-3.319-.782-4.563L106.411 21.7c-2.412-1.245-6.008-1.23-7.996.036z" fill="#ffafaf" fill-rule="nonzero"/>
    <path fill="#A3A3B2" fill-rule="nonzero" d="M24.821 43.153h-1.6V31.965h1.6z"/>
    <path fill="#A3A3B2" fill-rule="nonzero" d="M29.615 36.758v1.601H18.427v-1.6z"/>
    <g transform="translate(39.234 20.777)">
      <mask id="f" fill="#fff">
        <use xlink:href="#e"/>
      </mask>
      <use fill="#ffafaf" fill-rule="nonzero" xlink:href="#e"/>
      <path d="M105.187 14.026L81.572 28.938c-.807.509-.669 1.351.305 1.86l37.48 19.684a3.632 3.632 0 0 0 3.248 0l23.623-14.89c.806-.508.668-1.351-.306-1.86l-37.48-19.684a3.634 3.634 0 0 0-3.255-.022z" fill="#E58F8F" fill-rule="nonzero" mask="url(#f)"/>
    </g>
    <path d="M146.638 21.152L123.03 35.87c-.806.502-.668 1.334.305 1.837l37.448 19.452a3.671 3.671 0 0 0 3.246 0l23.608-14.711c.806-.502.668-1.334-.305-1.837L149.884 21.16a3.671 3.671 0 0 0-3.246-.007z" fill="#FFB55F" fill-rule="nonzero"/>
  </g>
</svg>
